{
  "totalPages": 105,
  "currentPage": 20,
  "queryTime": "0.013",
  "from": 191,
  "total": 1049,
  "to": 200,
  "stores": [
    {
      "fullPostalCode": "21224",
      "city": "Baltimore",
      "longName": "Best Buy - Security Blvd",
      "name": "Security Blvd",
      "region": "MD",
      "country": "US",
      "lng": -76.747841,
      "postalCode": "21224",
      "phone": "410-281-1900",
      "hours": "Mon: 10-9; Tue: 10-9; Wed: 10-9; Thurs: 10-9; Fri: 10-9; Sat: 10-9; Sun: 11-7",
      "lat": 39.313713,
      "address": "1701 Belmont Ave ",
      "storeId": 282
    },
    {
      "fullPostalCode": "21236",
      "city": "White Marsh",
      "longName": "Best Buy - White Marsh",
      "name": "White Marsh",
      "region": "MD",
      "country": "US",
      "lng": -76.454475,
      "postalCode": "21236",
      "phone": "410-931-3107",
      "hours": "Mon: 10-9; Tue: 10-9; Wed: 10-9; Thurs: 10-9; Fri: 10-9; Sat: 10-9; Sun: 11-7",
      "lat": 39.372471,
      "address": "5200 Campbell Blvd, Nottingham Square ",
      "storeId": 159
    },
    {
      "fullPostalCode": "21237",
      "city": "Rosedale",
      "longName": "Best Buy - Golden Ring",
      "name": "Golden Ring",
      "region": "MD",
      "country": "US",
      "lng": -76.483322,
      "postalCode": "21237",
      "phone": "410-238-2636",
      "hours": "Mon: 10-9; Tue: 10-9; Wed: 10-9; Thurs: 10-9; Fri: 10-9; Sat: 10-9; Sun: 11-7",
      "lat": 39.33239,
      "address": "8645 Pulaski Hwy",
      "storeId": 1057
    },
    {
      "fullPostalCode": "21401",
      "city": "Annapolis",
      "longName": "Best Buy - Annapolis",
      "name": "Annapolis",
      "region": "MD",
      "country": "US",
      "lng": -76.555206,
      "postalCode": "21401",
      "phone": "410-571-9011",
      "hours": "Mon: 10-9; Tue: 10-9; Wed: 10-9; Thurs: 10-9; Fri: 10-10; Sat: 10-10; Sun: 11-7",
      "lat": 38.985939,
      "address": "2643 Housley Rd Gateway Village Shopping Ctr",
      "storeId": 163
    },
    {
      "fullPostalCode": "21704",
      "city": "Frederick",
      "longName": "Best Buy - Frederick",
      "name": "Frederick",
      "region": "MD",
      "country": "US",
      "lng": -77.417465,
      "postalCode": "21704",
      "phone": "301-662-6130",
      "hours": "Mon: 10-9; Tue: 10-9; Wed: 10-9; Thurs: 10-9; Fri: 10-9; Sat: 10-9; Sun: 11-7",
      "lat": 39.396606,
      "address": "7300 Guilford Dr",
      "storeId": 427
    },
    {
      "fullPostalCode": "21740",
      "city": "Hagerstown",
      "longName": "Best Buy - Hagerstown",
      "name": "Hagerstown",
      "region": "MD",
      "country": "US",
      "lng": -77.745163,
      "postalCode": "21740",
      "phone": "240-420-8523",
      "hours": "Mon: 10-9; Tue: 10-9; Wed: 10-9; Thurs: 10-9; Fri: 10-9; Sat: 10-9; Sun: 11-7",
      "lat": 39.660263,
      "address": "18053 Garland Groh Blvd",
      "storeId": 1445
    },
    {
      "fullPostalCode": "21804",
      "city": "Salisbury",
      "longName": "Best Buy - Salisbury",
      "name": "Salisbury",
      "region": "MD",
      "country": "US",
      "lng": -75.565224,
      "postalCode": "21804",
      "phone": "410-334-6771",
      "hours": "Mon: 10-9; Tue: 10-9; Wed: 10-9; Thurs: 10-9; Fri: 10-9; Sat: 10-9; Sun: 11-7",
      "lat": 38.416882,
      "address": "109 E North Pointe Dr",
      "storeId": 772
    },
    {
      "fullPostalCode": "21911",
      "city": "Waynesville",
      "longName": "Best Buy - Waynesville",
      "name": "Waynesville",
      "region": "NC",
      "country": "US",
      "lng": 0.0,
      "postalCode": "21911",
      "phone": "828-454-7038",
      "hours": "Mon: 10-9; Tue: 10-9; Wed: 10-9; Thurs: 10-9; Fri: 10-9; Sat: 10-9; Sun: 11-7",
      "lat": 0.0,
      "address": "45 Plaza PL",
      "storeId": 1385
    },
    {
      "fullPostalCode": "22031",
      "city": "Fairfax",
      "longName": "Best Buy - Fair City",
      "name": "Fair City",
      "region": "VA",
      "country": "US",
      "lng": 0.0,
      "postalCode": "22031",
      "phone": "0-0-0000",
      "hours": "Mon: ; Tue: ; Wed: ; Thurs: ; Fri: ; Sat: ; Sun: ",
      "lat": 0.0,
      "address": "9652 Main Street",
      "storeId": 1199
    },
    {
      "fullPostalCode": "22033",
      "city": "Fairfax",
      "longName": "Best Buy - Fairlakes",
      "name": "Fairlakes",
      "region": "VA",
      "country": "US",
      "lng": -77.395248,
      "postalCode": "22033",
      "phone": "703-631-3332",
      "hours": "Mon: 10-9; Tue: 10-9; Wed: 10-9; Thurs: 10-9; Fri: 10-10; Sat: 10-10; Sun: 11-7",
      "lat": 38.857254,
      "address": "13058 Fairlakes Shopping Ctr",
      "storeId": 273
    }
  ],
  "canonicalUrl": "\/v1\/stores?page=20&format=json&apiKey=OU812",
  "totalTime": "0.018"
}