{
  "totalPages": 105,
  "currentPage": 1,
  "queryTime": "0.002",
  "from": 1,
  "total": 1049,
  "to": 10,
  "stores": [
    {
      "fullPostalCode": "00725",
      "city": "Caguas",
      "longName": "Best Buy - Caguas",
      "name": "Caguas",
      "region": "PR",
      "country": "US",
      "lng": -66.04043,
      "postalCode": "00725",
      "phone": "787-258-0110",
      "hours": "Mon: 10-9; Tue: 10-9; Wed: 10-9; Thurs: 10-9; Fri: 10-10; Sat: 9-9; Sun: 11-5",
      "lat": 18.24562,
      "address": "Las Catalinas Mall Las Americas Expry Pr52 Zafiro",
      "storeId": 1504
    },
    {
      "fullPostalCode": "00918",
      "city": "San Juan",
      "longName": "Best Buy - Hato Rey",
      "name": "Hato Rey",
      "region": "PR",
      "country": "US",
      "lng": -66.07188,
      "postalCode": "00918",
      "phone": "787-764-4900",
      "hours": "Mon: 9-9; Tue: 9-9; Wed: 9-9; Thurs: 9-9; Fri: 9-9; Sat: 9-9; Sun: 11-5",
      "lat": 18.42684,
      "address": "230 Calle Federico Costa Hato Rey",
      "storeId": 1118
    },
    {
      "fullPostalCode": "00961",
      "city": "Bayamon",
      "longName": "Best Buy - Rio Hondo",
      "name": "Rio Hondo",
      "region": "PR ",
      "country": "US",
      "lng": -66.16224,
      "postalCode": "00961",
      "phone": "787-522-0999",
      "hours": "Mon: 9-9; Tue: 9-9; Wed: 9-9; Thurs: 9-9; Fri: 9-9; Sat: 9-9; Sun: 11-5",
      "lat": 18.42217,
      "address": "60 Ave Rio Hondo Ste 60",
      "storeId": 1090
    },
    {
      "fullPostalCode": "00987",
      "city": "Carolina",
      "longName": "Best Buy - Los Colobos",
      "name": "Los Colobos",
      "region": "PR",
      "country": "US",
      "lng": -65.9254,
      "postalCode": "00987",
      "phone": "787-522-0949",
      "hours": "Mon: 10-9; Tue: 10-9; Wed: 10-9; Thurs: 10-9; Fri: 10-9; Sat: 10-9; Sun: 11-5",
      "lat": 18.3782,
      "address": "16350 Ave 65 Infanteria",
      "storeId": 1173
    },
    {
      "fullPostalCode": "01035",
      "city": "Hadley",
      "longName": "Best Buy - Hadley",
      "name": "Hadley",
      "region": "MA",
      "country": "US",
      "lng": -72.54847,
      "postalCode": "01035",
      "phone": "413-587-4011",
      "hours": "Mon: 10-9; Tue: 10-9; Wed: 10-9; Thurs: 10-9; Fri: 10-9; Sat: 10-9; Sun: 11-7",
      "lat": 42.357971,
      "address": "367 Russell St",
      "storeId": 683
    },
    {
      "fullPostalCode": "01040",
      "city": "Holyoke",
      "longName": "Best Buy - Holyoke",
      "name": "Holyoke",
      "region": "MA",
      "country": "US",
      "lng": -72.643005,
      "postalCode": "01040",
      "phone": "413-533-4443",
      "hours": "Mon: 10-9:30; Tue: 10-9:30; Wed: 10-9:30; Thurs: 10-9:30; Fri: 10-9:30; Sat: 10-9:30; Sun: 11-7",
      "lat": 42.169613,
      "address": "50 Holyoke St",
      "storeId": 418
    },
    {
      "fullPostalCode": "01237",
      "city": "Lanesboro",
      "longName": "Best Buy - Pittsfield",
      "name": "Pittsfield",
      "region": "MA",
      "country": "US",
      "lng": -73.205688,
      "postalCode": "01237",
      "phone": "413-445-5812",
      "hours": "Mon: 10-9; Tue: 10-9; Wed: 10-9; Thurs: 10-9; Fri: 10-9; Sat: 10-9; Sun: 11-7",
      "lat": 42.493664,
      "address": "655 Chesire Rd",
      "storeId": 548
    },
    {
      "fullPostalCode": "01453",
      "city": "Leominster ",
      "longName": "Best Buy - Leominster",
      "name": "Leominster",
      "region": "MA",
      "country": "US",
      "lng": -71.712425,
      "postalCode": "01453",
      "phone": "978-537-9042",
      "hours": "Mon: 10-9; Tue: 10-9; Wed: 10-9; Thurs: 10-9; Fri: 10-9; Sat: 10-9; Sun: 11-7",
      "lat": 42.527382,
      "address": "33 Orchard Hill Park Dr",
      "storeId": 1433
    },
    {
      "fullPostalCode": "01606",
      "city": "Worcester",
      "longName": "Best Buy - Worcester",
      "name": "Worcester",
      "region": "MA",
      "country": "US",
      "lng": -71.798485,
      "postalCode": "01606",
      "phone": "508-852-1800",
      "hours": "Mon: 10-9; Tue: 10-9; Wed: 10-9; Thurs: 10-9; Fri: 10-9; Sat: 10-9; Sun: 11-7",
      "lat": 42.295692,
      "address": "7 Neponset St",
      "storeId": 567
    },
    {
      "fullPostalCode": "01701",
      "city": "Framingham",
      "longName": "Best Buy - Framingham",
      "name": "Framingham",
      "region": "MA",
      "country": "US",
      "lng": -71.396507,
      "postalCode": "01701",
      "phone": "508-872-2223",
      "hours": "Mon: 10-9; Tue: 10-9; Wed: 10-9; Thurs: 10-9; Fri: 10-9; Sat: 10-9; Sun: 11-7",
      "lat": 42.301392,
      "address": "1 Worcester Rd",
      "storeId": 532
    }
  ],
  "canonicalUrl": "\/v1\/stores?format=json&apiKey=5b4tk8akphtrpt8ahecqc4yk",
  "totalTime": "0.007"
}