{
  "totalPages": 105,
  "currentPage": 20,
  "queryTime": "0.044",
  "from": 191,
  "total": 1049,
  "to": 200,
  "stores": [
    {
      "fullPostalCode": "30101",
      "city": "Acworth",
      "longName": "Best Buy - Acworth",
      "name": "Acworth",
      "region": "GA",
      "country": "US",
      "lng": -84.683434,
      "postalCode": "30101",
      "phone": "678-574-4715",
      "hours": "Mon: 10-9; Tue: 10-9; Wed: 10-9; Thurs: 10-9; Fri: 10-10; Sat: 10-10; Sun: 11-7",
      "lat": 34.034866,
      "address": "3335 Cobb Pkwy Nw",
      "storeId": 1159
    },
    {
      "fullPostalCode": "04005",
      "city": "Biddeford",
      "longName": "Best Buy - Biddeford",
      "name": "Biddeford",
      "region": "ME",
      "country": "US",
      "lng": 0.0,
      "postalCode": "04005",
      "phone": "207-286-0583",
      "hours": "Mon: 10-9; Tue: 10-9; Wed: 10-9; Thurs: 10-9; Fri: 10-9; Sat: 10-9; Sun: 11-7",
      "lat": 0.0,
      "address": "405 Mariner Way",
      "storeId": 1158
    },
    {
      "fullPostalCode": "70816",
      "city": "Baton Rouge",
      "longName": "Best Buy - Millerville",
      "name": "Millerville",
      "region": "LA",
      "country": "US",
      "lng": -91.019234,
      "postalCode": "70816",
      "phone": "225-226-1559",
      "hours": "Mon: 9-9; Tue: 9-9; Wed: 9-9; Thurs: 9-9; Fri: 9-10; Sat: 9-10; Sun: 10-8",
      "lat": 30.43948,
      "address": "1977 Millerville Rd ",
      "storeId": 1157
    },
    {
      "fullPostalCode": "34787",
      "city": "Winter Garden",
      "longName": "Best Buy - Winter Garden",
      "name": "Winter Garden",
      "region": "FL",
      "country": "US",
      "lng": -81.586365,
      "postalCode": "34787",
      "phone": "407-877-8032",
      "hours": "Mon: 10-9; Tue: 10-9; Wed: 10-9; Thurs: 10-9; Fri: 10-9; Sat: 10-9; Sun: 11-7",
      "lat": 28.520824,
      "address": "3367 Daniels Rd",
      "storeId": 1156
    },
    {
      "fullPostalCode": "28216",
      "city": "Charlotte",
      "longName": "Best Buy - Charlotte-North Lake",
      "name": "Charlotte-North Lake",
      "region": "NC",
      "country": "US",
      "lng": -80.85369,
      "postalCode": "28216",
      "phone": "704-598-0172",
      "hours": "Mon: 10-9; Tue: 10-9; Wed: 10-9; Thurs: 10-9; Fri: 10-9; Sat: 10-9; Sun: 11-7",
      "lat": 35.34679,
      "address": "10221 Perimeter Pkwy",
      "storeId": 1155
    },
    {
      "fullPostalCode": "08852",
      "city": "Monmouth Jct",
      "longName": "Best Buy - South Brunswick",
      "name": "South Brunswick",
      "region": "NJ",
      "country": "US",
      "lng": -74.57343,
      "postalCode": "08852",
      "phone": "732-438-5790",
      "hours": "Mon: 10-9; Tue: 10-9; Wed: 10-9; Thurs: 10-9; Fri: 10-9; Sat: 10-9; Sun: 11-7",
      "lat": 40.38204,
      "address": "4180 Us Hwy 1, Ste 400C",
      "storeId": 1154
    },
    {
      "fullPostalCode": "78723",
      "city": "Austin",
      "longName": "Best Buy - Mueller Airport",
      "name": "Mueller Airport",
      "region": "TX",
      "country": "US",
      "lng": -97.70874,
      "postalCode": "78723",
      "phone": "512-322-2047",
      "hours": "Mon: 10-9; Tue: 10-9; Wed: 10-9; Thurs: 10-9; Fri: 10-10; Sat: 9-10; Sun: 10-8",
      "lat": 30.306004,
      "address": "1201 Barbara Jordan Blvd",
      "storeId": 1153
    },
    {
      "fullPostalCode": "14225",
      "city": "Cheektowaga",
      "longName": "Best Buy - Walden Galleria",
      "name": "Walden Galleria",
      "region": "NY",
      "country": "US",
      "lng": -78.763435,
      "postalCode": "14225",
      "phone": "716-681-5406",
      "hours": "Mon: 10-9; Tue: 10-9; Wed: 10-9; Thurs: 10-9; Fri: 10-9; Sat: 10-9; Sun: 11-7",
      "lat": 42.914886,
      "address": "J107 Walden Galleria ",
      "storeId": 1152
    },
    {
      "fullPostalCode": "55374",
      "city": "Rogers",
      "longName": "Best Buy - Rogers",
      "name": "Rogers",
      "region": "MN",
      "country": "US",
      "lng": -93.544197,
      "postalCode": "55374",
      "phone": "763-428-7140",
      "hours": "Mon: 10-9; Tue: 10-9; Wed: 10-9; Thurs: 10-9; Fri: 9-9; Sat: 9-9; Sun: 10-7",
      "lat": 45.191833,
      "address": "20870 Rogers Dr",
      "storeId": 1151
    },
    {
      "fullPostalCode": "91764",
      "city": "Ontario",
      "longName": "Best Buy - Ontario",
      "name": "Ontario",
      "region": "CA",
      "country": "US",
      "lng": -117.5671,
      "postalCode": "91764",
      "phone": "909-476-2568",
      "hours": "Mon: 9-9; Tue: 9-9; Wed: 9-9; Thurs: 9-9; Fri: 9-10; Sat: 9-10; Sun: 9-8",
      "lat": 34.073677,
      "address": "4120a E 4th St",
      "storeId": 1150
    }
  ],
  "canonicalUrl": "\/v1\/stores?sort=storeId.desc&page=20&format=json&apiKey=5b4tk8akphtrpt8ahecqc4yk",
  "totalTime": "0.048"
}