{
  "totalPages": 10,
  "currentPage": 1,
  "queryTime": "0.104",
  "from": 1,
  "total": 93,
  "to": 10,
  "stores": [
    {
      "fullPostalCode": "70601",
      "city": "Lake Charles",
      "longName": "Best Buy - Lake Charles",
      "name": "Lake Charles",
      "region": "TX",
      "country": "US",
      "lng": -93.225464,
      "postalCode": "70601",
      "phone": "337-474-1196",
      "hours": "Mon: 9-9; Tue: 9-9; Wed: 9-9; Thurs: 9-9; Fri: 9-10; Sat: 9-10; Sun: 10-8",
      "lat": 30.199205,
      "address": "715 W Prien Lake Rd",
      "storeId": 1080
    },
    {
      "fullPostalCode": "75002",
      "city": "Allen",
      "longName": "Best Buy - Allen",
      "name": "Allen",
      "region": "TX",
      "country": "US",
      "lng": -96.65549,
      "postalCode": "75002",
      "phone": "469-675-8924",
      "hours": "Mon: 10-9; Tue: 10-9; Wed: 10-9; Thurs: 10-9; Fri: 10-10; Sat: 10-10; Sun: 10-8",
      "lat": 33.1267,
      "address": "190 E Stacy Rd Bldg 3000",
      "storeId": 1780
    },
    {
      "fullPostalCode": "75022",
      "city": "Flower Mound",
      "longName": "Best Buy - Flower Mound",
      "name": "Flower Mound",
      "region": "TX",
      "country": "US",
      "lng": -97.080109,
      "postalCode": "75022",
      "phone": "972-874-0965",
      "hours": "Mon: 10-9; Tue: 10-9; Wed: 10-9; Thurs: 10-9; Fri: 10-9; Sat: 9-9; Sun: 10-8",
      "lat": 33.06926,
      "address": "6060 Long Prairie Rd",
      "storeId": 1038
    },
    {
      "fullPostalCode": "75034",
      "city": "Frisco",
      "longName": "Best Buy - Frisco",
      "name": "Frisco",
      "region": "TX",
      "country": "US",
      "lng": -96.83974,
      "postalCode": "75034",
      "phone": "214-872-2079",
      "hours": "Mon: 10-9; Tue: 10-9; Wed: 10-9; Thurs: 10-9; Fri: 10-10; Sat: 10-10; Sun: 10-8",
      "lat": 33.17477,
      "address": "5299 Eldorado Pkwy",
      "storeId": 1773
    },
    {
      "fullPostalCode": "75034",
      "city": "Frisco",
      "longName": "Best Buy - Frisco",
      "name": "Frisco",
      "region": "TX",
      "country": "US",
      "lng": -96.807182,
      "postalCode": "75034",
      "phone": "972-712-3939",
      "hours": "Mon: 10-9; Tue: 10-9; Wed: 10-9; Thurs: 10-9; Fri: 10-10; Sat: 10-10; Sun: 11-8",
      "lat": 33.108253,
      "address": "3333 Preston Rd #200",
      "storeId": 180
    },
    {
      "fullPostalCode": "75040",
      "city": "Garland",
      "longName": "Best Buy - Garland",
      "name": "Garland",
      "region": "TX",
      "country": "US",
      "lng": -96.613983,
      "postalCode": "75040",
      "phone": "972-530-6818",
      "hours": "Mon: 10-9; Tue: 10-9; Wed: 10-9; Thurs: 10-9; Fri: 10-10; Sat: 10-10; Sun: 10-8",
      "lat": 32.945286,
      "address": "3171 N George Bush Fwy",
      "storeId": 1412
    },
    {
      "fullPostalCode": "75056",
      "city": "Lewisville",
      "longName": "Best Buy - The Colony",
      "name": "The Colony",
      "region": "TX",
      "country": "US",
      "lng": -96.88915,
      "postalCode": "75056",
      "phone": "214-469-2979",
      "hours": "Mon: 10-9; Tue: 10-9; Wed: 10-9; Thurs: 10-9; Fri: 10-10; Sat: 10-10; Sun: 11-8",
      "lat": 33.06501,
      "address": "4800 State Hwy 121 ",
      "storeId": 1796
    },
    {
      "fullPostalCode": "75062",
      "city": "Irving",
      "longName": "Best Buy - Irving",
      "name": "Irving",
      "region": "TX",
      "country": "US",
      "lng": -97.004326,
      "postalCode": "75062",
      "phone": "972-258-0001",
      "hours": "Mon: 10-9; Tue: 10-9; Wed: 10-9; Thurs: 10-9; Fri: 10-10; Sat: 10-10; Sun: 11-8",
      "lat": 32.838085,
      "address": "3915 W Airport Fwy, Irving Market Center",
      "storeId": 205
    },
    {
      "fullPostalCode": "75063",
      "city": "Irving",
      "longName": "Best Buy - North Irving",
      "name": "North Irving",
      "region": "TX",
      "country": "US",
      "lng": -96.972069,
      "postalCode": "75063",
      "phone": "972-910-0330",
      "hours": "Mon: 10-9; Tue: 10-9; Wed: 10-9; Thurs: 10-9; Fri: 10-10; Sat: 10-10; Sun: 11-8",
      "lat": 32.920174,
      "address": "1900 Market Place Blvd ",
      "storeId": 1032
    },
    {
      "fullPostalCode": "75067",
      "city": "Lewisville",
      "longName": "Best Buy - Lewisville",
      "name": "Lewisville",
      "region": "TX",
      "country": "US",
      "lng": -96.963219,
      "postalCode": "75067",
      "phone": "214-488-8624",
      "hours": "Mon: 10-9; Tue: 10-9; Wed: 10-9; Thurs: 10-9; Fri: 10-10; Sat: 10-10; Sun: 10-8",
      "lat": 32.999397,
      "address": "2601 S Stemmons Fwy",
      "storeId": 258
    }
  ],
  "canonicalUrl": "\/v1\/stores(region=\"TX\")?format=json&apiKey=5b4tk8akphtrpt8ahecqc4yk",
  "totalTime": "0.109"
}