{
  "totalPages": 4,
  "currentPage": 1,
  "queryTime": "0.008",
  "from": 1,
  "total": 31,
  "to": 10,
  "stores": [
    {
      "fullPostalCode": "76205",
      "city": "Denton",
      "longName": "Best Buy - Denton",
      "name": "Denton",
      "region": "TX",
      "country": "US",
      "lng": -97.10067,
      "postalCode": "76205",
      "phone": "940-384-9581",
      "hours": "Mon: 10-9; Tue: 10-9; Wed: 10-9; Thurs: 10-9; Fri: 10-10; Sat: 10-10; Sun: 11-8",
      "lat": 33.192524,
      "address": "1800 S Loop 288, Ste 102 Bldg 1 ",
      "distance": 9.79,
      "storeId": 827
    },
    {
      "fullPostalCode": "75034",
      "city": "Frisco",
      "longName": "Best Buy - Frisco",
      "name": "Frisco",
      "region": "TX",
      "country": "US",
      "lng": -96.83974,
      "postalCode": "75034",
      "phone": "214-872-2079",
      "hours": "Mon: 10-9; Tue: 10-9; Wed: 10-9; Thurs: 10-9; Fri: 10-10; Sat: 10-10; Sun: 10-8",
      "lat": 33.17477,
      "address": "5299 Eldorado Pkwy",
      "distance": 10.79,
      "storeId": 1773
    },
    {
      "fullPostalCode": "75034",
      "city": "Frisco",
      "longName": "Best Buy - Frisco",
      "name": "Frisco",
      "region": "TX",
      "country": "US",
      "lng": -96.807182,
      "postalCode": "75034",
      "phone": "972-712-3939",
      "hours": "Mon: 10-9; Tue: 10-9; Wed: 10-9; Thurs: 10-9; Fri: 10-10; Sat: 10-10; Sun: 11-8",
      "lat": 33.108253,
      "address": "3333 Preston Rd #200",
      "distance": 15.49,
      "storeId": 180
    },
    {
      "fullPostalCode": "75056",
      "city": "Lewisville",
      "longName": "Best Buy - The Colony",
      "name": "The Colony",
      "region": "TX",
      "country": "US",
      "lng": -96.88915,
      "postalCode": "75056",
      "phone": "214-469-2979",
      "hours": "Mon: 10-9; Tue: 10-9; Wed: 10-9; Thurs: 10-9; Fri: 10-10; Sat: 10-10; Sun: 11-8",
      "lat": 33.06501,
      "address": "4800 State Hwy 121 ",
      "distance": 15.93,
      "storeId": 1796
    },
    {
      "fullPostalCode": "75022",
      "city": "Flower Mound",
      "longName": "Best Buy - Flower Mound",
      "name": "Flower Mound",
      "region": "TX",
      "country": "US",
      "lng": -97.080109,
      "postalCode": "75022",
      "phone": "972-874-0965",
      "hours": "Mon: 10-9; Tue: 10-9; Wed: 10-9; Thurs: 10-9; Fri: 10-9; Sat: 9-9; Sun: 10-8",
      "lat": 33.06926,
      "address": "6060 Long Prairie Rd",
      "distance": 16.15,
      "storeId": 1038
    },
    {
      "fullPostalCode": "75070",
      "city": "Mckinney",
      "longName": "Best Buy - SW Mckinney",
      "name": "SW Mckinney",
      "region": "TX",
      "country": "US",
      "lng": -96.72936,
      "postalCode": "75070",
      "phone": "214-250-5939",
      "hours": "Mon: 10-9; Tue: 10-9; Wed: 10-9; Thurs: 10-9; Fri: 10-9; Sat: 10-9; Sun: 10-7",
      "lat": 33.13148,
      "address": "8720 State Hwy 121 Ste 112",
      "distance": 17.59,
      "storeId": 1775
    },
    {
      "fullPostalCode": "75067",
      "city": "Lewisville",
      "longName": "Best Buy - Lewisville",
      "name": "Lewisville",
      "region": "TX",
      "country": "US",
      "lng": -96.963219,
      "postalCode": "75067",
      "phone": "214-488-8624",
      "hours": "Mon: 10-9; Tue: 10-9; Wed: 10-9; Thurs: 10-9; Fri: 10-10; Sat: 10-10; Sun: 10-8",
      "lat": 32.999397,
      "address": "2601 S Stemmons Fwy",
      "distance": 19.73,
      "storeId": 258
    },
    {
      "fullPostalCode": "75070",
      "city": "Mckinney",
      "longName": "Best Buy - Mckinney",
      "name": "Mckinney",
      "region": "TX",
      "country": "US",
      "lng": -96.639603,
      "postalCode": "75070",
      "phone": "972-542-8305",
      "hours": "Mon: 10-9; Tue: 10-9; Wed: 10-9; Thurs: 10-9; Fri: 10-10; Sat: 10-10; Sun: 10-7",
      "lat": 33.213333,
      "address": "1751 N Central Expy Ste C",
      "distance": 19.86,
      "storeId": 196
    },
    {
      "fullPostalCode": "75002",
      "city": "Allen",
      "longName": "Best Buy - Allen",
      "name": "Allen",
      "region": "TX",
      "country": "US",
      "lng": -96.65549,
      "postalCode": "75002",
      "phone": "469-675-8924",
      "hours": "Mon: 10-9; Tue: 10-9; Wed: 10-9; Thurs: 10-9; Fri: 10-10; Sat: 10-10; Sun: 10-8",
      "lat": 33.1267,
      "address": "190 E Stacy Rd Bldg 3000",
      "distance": 21.33,
      "storeId": 1780
    },
    {
      "fullPostalCode": "75074",
      "city": "Plano",
      "longName": "Best Buy - Plano ",
      "name": "Plano ",
      "region": "TX",
      "country": "US",
      "lng": -96.702805,
      "postalCode": "75074",
      "phone": "972-578-8000",
      "hours": "Mon: 10-9:00; Tue: 10-9:00; Wed: 10-9:00; Thurs: 10-9:00; Fri: 10-10; Sat: 10-10; Sun: 10-8",
      "lat": 33.035957,
      "address": "2800 N Central Expy",
      "distance": 23.21,
      "storeId": 202
    }
  ],
  "canonicalUrl": "\/v1\/stores(area(\"76227\",50))?format=json&apiKey=5b4tk8akphtrpt8ahecqc4yk",
  "totalTime": "0.023"
}